{
  "profiles": {
    "Mz.Bot.Discord.Lookup": {
      "commandName": "Project",
      "environmentVariables": {
        "DOTNET_ENVIRONMENT": "Development"
      },
      "dotnetRunMessages": "true"
    },
    "Docker": {
      "commandName": "Docker"
    }
  }
}